Introduction to `cqcr` • cqcr
…
care_home_df

#> # A tibble: 193 × 8
#>    location_id  name      number_of_beds onspd_longitude onspd_latitude rating  
#>    <chr>        <chr>              <int>           <dbl>          <dbl> <fct>   
#>  1 1-105426344  Checania…              3        -0.0499            51.6 No publ…
#>  2 1-105836127  Forest V…             24         0.00178           51.6 Good    
#>  3 1-105885228  Heathlan…             84         0.00269           51.6 Good    
#>  4 1-106916349  Aspray H…             64        -0.0169            51.6 Require…
#>  5 1-107269593  Acorn Lo…             98        -0.0533            51.6 Require…
#>  6 1-108969091  St Micha…             11         0.00205           51.6 No publ…
#>  7 1-109015718  Ashcroft…             15         0.0120            51.6 No publ…
#>  8 1-109949478  Rosemead…             20        -0.0141            51.6 No publ…
#>  9 1-110213739  Albany N…             61        -0.0187            51.6 Good    
#> 10 1-1105339094 Toby Lod…             10        -0.0401            51.5 Good    
#> # … with 183 more rows, and 2 more variables: report_date <chr>,
#> #   specialisms <list>
…
